…
``` r
elk_df <- read_csv("./data/elk_df.csv")
```

For some reason the `read_csv` function didn’t parse the timestamp
column as “datetime” format, so we’ll manually convert it to POSIXct
format, which is the date-time format that `amt` likes:

``` r
elk_df$timestamp <- as.POSIXct(elk_df$timestamp, format = "%m/%d/%y %H:%M")
elk_df
```

    ## # A tibble: 10,227 × 5
    ##    id      lat   lon elevation timestamp          
    ##    <chr> <dbl> <dbl>     <dbl> <dttm>             
    ##  1 yl2    51.7 -116.      1577 2003-04-15 22:00:00
    ##  2 yl2    51.7 -116.      1657 2003-04-15 20:00:00
    ##  3 yl2    51.7 -116.      1657 2003-04-15 12:00:00
    ##  4 yl2    51.7 -116.      1669 2003-04-15 10:00:00
    ##  5 yl2    51.7 -116.      1669 2003-04-15 08:00:00
    ##  6 yl2    51.7 -116.      1669 2003-04-15 06:00:00
    ##  7 yl2    51.7 -116.      1681 2003-04-15 04:00:00
    ##  8 yl2    51.7 -116.      1681 2003-04-15 02:00:00
    ##  9 yl2    51.7 -116.      1679 2003-04-15 00:00:00
    ## 10 yl2    51.7 -116.      1657 2003-04-15 18:00:00
    ## # … with 10,217 more rows
…
# Creating and nesting an `amt` track

We’ll use the make_track function to do this. Our data is in WGS 84, so
we’ll specify that as the coordinate reference system
(“+init=epsg:4326”), and then transform it to UTM because `amt` requires
projected data rather than lon lat.

``` r
elk_trk <- amt::make_track(elk_df, .x=lon, .y=lat, .t=timestamp, id=id, crs = "EPSG:4326") %>%
      amt::transform_coords("+proj=utm +zone=11 +ellps=GRS80 +units=m +no_defs")
elk_trk
```

    ## # A tibble: 10,227 × 4
    ##         x_       y_ t_                  id   
    ##  *   <dbl>    <dbl> <dttm>              <chr>
    ##  1 603229. 5732236. 2003-04-15 00:00:00 yl2  
    ##  2 603072. 5732284. 2003-04-15 00:00:00 yl5  
    ##  3 602840. 5732378. 2003-04-15 00:00:00 yl25 
    ##  4 603465. 5732202. 2003-04-15 00:00:00 yl42 
    ##  5 603350. 5732142. 2003-04-15 00:00:00 GP2  
    ##  6 603285. 5732230. 2003-04-15 00:01:00 yl29 
    ##  7 603155. 5732326. 2003-04-15 02:00:00 yl2  
    ##  8 603217. 5732246. 2003-04-15 02:00:00 yl5  
    ##  9 602874. 5732478. 2003-04-15 02:00:00 yl25 
    ## 10 603291. 5732247. 2003-04-15 02:00:00 yl29 
    ## # … with 10,217 more rows
…
The “data” list-column has all our original data, and the “trk”
list-column has our data in `amt`’s `track_xyt` format. Just to remind
ourselves, let’s look at the first element (first animal) in the “trk”
list-column.

``` r
elk_trk_id$trk[[1]]
```

    ## # A tibble: 1,999 × 3
    ##         x_       y_ t_                 
    ##  *   <dbl>    <dbl> <dttm>             
    ##  1 603229. 5732236. 2003-04-15 00:00:00
    ##  2 603155. 5732326. 2003-04-15 02:00:00
    ##  3 602917. 5732472. 2003-04-15 04:00:00
    ##  4 602729. 5732580. 2003-04-15 06:00:00
    ##  5 602489. 5732709. 2003-04-15 08:00:00
    ##  6 602473. 5732727. 2003-04-15 10:00:00
    ##  7 602412. 5732731. 2003-04-15 12:00:00
    ##  8 602158. 5732509. 2003-04-15 18:00:00
    ##  9 601884. 5732442. 2003-04-15 20:00:00
    ## 10 601574. 5732337. 2003-04-15 22:00:00
    ## # … with 1,989 more rows
…
So, we are doing a *point-based* SSF rather than a *path-based* SSF.
[Daniel Fortin et al.’s SSF paper from
2005](https://esajournals.onlinelibrary.wiley.com/doi/full/10.1890/04-0953)
is an example of a path-based SSF.

Take a look at what we just created above with that monster chunk of
code.

``` r
print(ssf_2_hr, width=Inf)
```

    ## # A tibble: 37,380 × 17
    ##    id    burst_     x1_     x2_      y1_      y2_    sl_     ta_
    ##    <chr>  <dbl>   <dbl>   <dbl>    <dbl>    <dbl>  <dbl>   <dbl>
    ##  1 yl2        1 603229. 603155. 5732236. 5732326. 117.   NA     
    ##  2 yl2        1 603229. 602947. 5732236. 5731577. 716.    2.05  
    ##  3 yl2        1 603229. 603023. 5732236. 5732873. 670.   -0.379 
    ##  4 yl2        1 603229. 603019. 5732236. 5731907. 390.    1.88  
    ##  5 yl2        1 603155. 602917. 5732326. 5732472. 279.    0.328 
    ##  6 yl2        1 603155. 603248. 5732326. 5732353.  97.7  -2.31  
    ##  7 yl2        1 603155. 603157. 5732326. 5732323.   3.39  2.77  
    ##  8 yl2        1 603155. 603226. 5732326. 5732473. 163.   -1.47  
    ##  9 yl2        1 602917. 602729. 5732472. 5732580. 217.    0.0306
    ## 10 yl2        1 602917. 602917. 5732472. 5732467.   5.31  2.05  
    ##    t1_                 t2_                 dt_     step_id_ case_  elev slope
    ##    <dttm>              <dttm>              <drtn>     <int> <lgl> <dbl> <dbl>
    ##  1 2003-04-15 00:00:00 2003-04-15 02:00:00 2 hours        1 TRUE  1688. 12.8 
    ##  2 2003-04-15 00:00:00 2003-04-15 02:00:00 2 hours        1 FALSE 1561.  3.26
    ##  3 2003-04-15 00:00:00 2003-04-15 02:00:00 2 hours        1 FALSE 1717.  5.87
    ##  4 2003-04-15 00:00:00 2003-04-15 02:00:00 2 hours        1 FALSE 1614. 14.2 
    ##  5 2003-04-15 02:00:00 2003-04-15 04:00:00 2 hours        2 TRUE  1694.  5.66
    ##  6 2003-04-15 02:00:00 2003-04-15 04:00:00 2 hours        2 FALSE 1688. 12.8 
    ##  7 2003-04-15 02:00:00 2003-04-15 04:00:00 2 hours        2 FALSE 1688. 12.8 
    ##  8 2003-04-15 02:00:00 2003-04-15 04:00:00 2 hours        2 FALSE 1719.  5.55
    ##  9 2003-04-15 04:00:00 2003-04-15 06:00:00 2 hours        3 TRUE  1694.  5.66
    ## 10 2003-04-15 04:00:00 2003-04-15 06:00:00 2 hours        3 FALSE 1694.  5.66
    ##    d_human d_high_human
    ##      <dbl>        <dbl>
    ##  1    60.5       0.0129
    ##  2    79.3     115.    
    ##  3    82.2       3.85  
    ##  4    64.6       1.32  
    ##  5   101.       13.9   
    ##  6    60.5       0.0129
    ##  7    60.5       0.0129
    ##  8    78.0       0.606 
    ##  9   101.       13.9   
    ## 10   101.       13.9   
    ## # … with 37,370 more rows
…
